
{"results":[{"vote_count":1618,"id":299536,"video":false,"vote_average":8.7,"title":"Avengers: Infinity War","popularity":567.202659,"poster_path":"\/7WsyChQLEftFiDOVTGkv3hFpyyt.jpg","original_language":"en","original_title":"Avengers: Infinity War","genre_ids":[12,878,14,28],"backdrop_path":"\/bOGkgRGdhrBYJSLpXaxhXVstddV.jpg","adult":false,"overview":"As the Avengers and their allies have continued to protect the world from threats too large for any one hero to handle, a new danger has emerged from the cosmic shadows: Thanos. A despot of intergalactic infamy, his goal is to collect all six Infinity Stones, artifacts of unimaginable power, and use them to inflict his twisted will on all of reality. Everything the Avengers have fought for has led up to this moment - the fate of Earth and existence itself has never been more uncertain.","release_date":"2018-04-25"},{"vote_count":353,"id":427641,"video":false,"vote_average":5.9,"title":"Rampage","popularity":246.293314,"poster_path":"\/30oXQKwibh0uANGMs0Sytw3uN22.jpg","original_language":"en","original_title":"Rampage","genre_ids":[28,12,878],"backdrop_path":"\/wrqUiMXttHE4UBFMhLHlN601MZh.jpg","adult":false,"overview":"Primatologist Davis Okoye shares an unshakable bond with George, the extraordinarily intelligent, silverback gorilla who has been in his care since birth.  But a rogue genetic experiment gone awry mutates this gentle ape into a raging creature of enormous size.  To make matters worse, it’s soon discovered there are other similarly altered animals.  As these newly created alpha predators tear across North America, destroying everything in their path, Okoye teams with a discredited genetic engineer to secure an antidote, fighting his way through an ever-changing battlefield, not only to halt a global catastrophe but to save the fearsome creature that was once his friend.","release_date":"2018-04-12"},{"vote_count":808,"id":447332,"video":false,"vote_average":7.4,"title":"A Quiet Place","popularity":129.273958,"poster_path":"\/nAU74GmpUk7t5iklEp3bufwDq4n.jpg","original_language":"en","original_title":"A Quiet Place","genre_ids":[18,27,53,878],"backdrop_path":"\/roYyPiQDQKmIKUEhO912693tSja.jpg","adult":false,"overview":"A family is forced to live in silence while hiding from creatures that hunt by sound.","release_date":"2018-04-05"},{"vote_count":1667,"id":333339,"video":false,"vote_average":7.9,"title":"Ready Player One","popularity":98.587052,"poster_path":"\/pU1ULUq8D3iRxl1fdX2lZIzdHuI.jpg","original_language":"en","original_title":"Ready Player One","genre_ids":[12,878,28],"backdrop_path":"\/q7fXcrDPJcf6t3rzutaNwTzuKP1.jpg","adult":false,"overview":"When the creator of a popular video game system dies, a virtual contest is created to compete for his fortune.","release_date":"2018-03-28"},{"vote_count":3860,"id":353486,"video":false,"vote_average":6.6,"title":"Jumanji: Welcome to the Jungle","popularity":76.444446,"poster_path":"\/bXrZ5iHBEjH7WMidbUDQ0U2xbmr.jpg","original_language":"en","original_title":"Jumanji: Welcome to the Jungle","genre_ids":[28,12,35,10751],"backdrop_path":"\/zZKmEmRDc7ZjFucPm2UGNgDRlDc.jpg","adult":false,"overview":"The tables are turned as four teenagers are sucked into Jumanji's world - pitted against rhinos, black mambas and an endless variety of jungle traps and puzzles. To survive, they'll play as characters from the game.","release_date":"2017-12-09"},{"vote_count":563,"id":268896,"video":false,"vote_average":5.9,"title":"Pacific Rim: Uprising","popularity":69.631048,"poster_path":"\/v5HlmJK9bdeHxN2QhaFP1ivjX3U.jpg","original_language":"en","original_title":"Pacific Rim: Uprising","genre_ids":[28,14,878,12],"backdrop_path":"\/mo5EJsExrQCroqPDwUwp6jeq0xS.jpg","adult":false,"overview":"It has been ten years since The Battle of the Breach and the oceans are still, but restless. Vindicated by the victory at the Breach, the Jaeger program has evolved into the most powerful global defense force in human history. The PPDC now calls upon the best and brightest to rise up and become the next generation of heroes when the Kaiju threat returns.","release_date":"2018-03-21"},{"vote_count":387,"id":449443,"video":false,"vote_average":6.3,"title":"Den of Thieves","popularity":59.825095,"poster_path":"\/AfybH6GbGFw1F9bcETe2yu25mIE.jpg","original_language":"en","original_title":"Den of Thieves","genre_ids":[28,53,80],"backdrop_path":"\/s3FDBLH4qc1IcjexB05Qvbn3wxO.jpg","adult":false,"overview":"While planning a bank heist, a thief gets trapped between two sets of criminals.","release_date":"2018-01-18"},{"vote_count":154,"id":381719,"video":false,"vote_average":6.5,"title":"Peter Rabbit","popularity":58.707488,"poster_path":"\/2yjSvEDuM3rLDng40erLsWkQRfn.jpg","original_language":"en","original_title":"Peter Rabbit","genre_ids":[16,12,10751],"backdrop_path":"\/e9dVo1OXZL6sWinc9uIS0Foo4QG.jpg","adult":false,"overview":"Peter Rabbit's feud with Mr. McGregor escalates to greater heights than ever before as they rival for the affections of the warm-hearted animal lover who lives next door.","release_date":"2018-02-07"},{"vote_count":962,"id":399035,"video":false,"vote_average":5.8,"title":"The Commuter","popularity":54.520962,"poster_path":"\/rDeGK6FIUfVcXmuBdEORPAGPMNg.jpg","original_language":"en","original_title":"The Commuter","genre_ids":[28,80,18,9648,53],"backdrop_path":"\/clmYuR1t4TtKcakIOvYIPrjyxDc.jpg","adult":false,"overview":"A businessman on his daily commute home gets unwittingly caught up in a criminal conspiracy that threatens not only his life but the lives of those around him.","release_date":"2018-01-11"},{"vote_count":1098,"id":338970,"video":false,"vote_average":6.1,"title":"Tomb Raider","popularity":52.473786,"poster_path":"\/ePyN2nX9t8SOl70eRW47Q29zUFO.jpg","original_language":"en","original_title":"Tomb Raider","genre_ids":[28,12,14],"backdrop_path":"\/yVlaVnGRwJMxB3txxwA24XurSNp.jpg","adult":false,"overview":"Lara Croft, the fiercely independent daughter of a missing adventurer, must push herself beyond her limits when she finds herself on the island where her father disappeared.","release_date":"2018-03-08"},{"vote_count":1650,"id":300668,"video":false,"vote_average":6.3,"title":"Annihilation","popularity":51.046149,"poster_path":"\/d3qcpfNwbAMCNqWDHzPQsUYiUgS.jpg","original_language":"en","original_title":"Annihilation","genre_ids":[9648,878,18],"backdrop_path":"\/5zfVNTrkhMu673zma6qhFzG01ig.jpg","adult":false,"overview":"A biologist signs up for a dangerous, secret expedition into a mysterious zone where the laws of nature don't apply.","release_date":"2018-02-22"},{"vote_count":389,"id":384680,"video":false,"vote_average":6.3,"title":"Hostiles","popularity":49.103451,"poster_path":"\/rqoezyB51GfhiloOB5ZErg5HXas.jpg","original_language":"en","original_title":"Hostiles","genre_ids":[12,18,37,36],"backdrop_path":"\/ozdXqMwijV192aSrojjFQMGeWSh.jpg","adult":false,"overview":"A legendary Native American-hating Army captain nearing retirement in 1892 is given one last assignment: to escort a Cheyenne chief and his family through dangerous territory back to his Montana reservation.","release_date":"2017-12-22"},{"vote_count":840,"id":401981,"video":false,"vote_average":6.5,"title":"Red Sparrow","popularity":43.891817,"poster_path":"\/fyufzd2S1lLxMxkTHTnmr6VJfe5.jpg","original_language":"en","original_title":"Red Sparrow","genre_ids":[9648,53],"backdrop_path":"\/uBw0QSBWamSWXWl5ttwhxq4h09s.jpg","adult":false,"overview":"Prima ballerina Dominika Egorova faces a bleak and uncertain future after she suffers an injury that ends her career. She soon turns to Sparrow School, a secret intelligence service that trains exceptional young people to use their minds and bodies as weapons. Egorova emerges as the most dangerous Sparrow after completing the sadistic training process. As she comes to terms with her new abilities, Dominika meets a CIA agent who tries to convince her that he is the only person she can trust.","release_date":"2018-03-01"},{"vote_count":455,"id":429351,"video":false,"vote_average":4.8,"title":"12 Strong","popularity":41.993033,"poster_path":"\/j18021qCeRi3yUBtqd2UFj1c0RQ.jpg","original_language":"en","original_title":"12 Strong","genre_ids":[10752,18,36],"backdrop_path":"\/wacEk5YSNE41QeKseilyytksXmv.jpg","adult":false,"overview":"A team of CIA agents and special forces head into Afghanistan in the aftermath of the September 11th attacks in an attempt to dismantle the Taliban.","release_date":"2018-01-18"},{"vote_count":152,"id":468202,"video":false,"vote_average":6.7,"title":"The Girl in the Fog","popularity":40.662487,"poster_path":"\/eWINXglQ9JVxUuzouYK7arm9YT1.jpg","original_language":"it","original_title":"La ragazza nella nebbia","genre_ids":[80,53],"backdrop_path":"\/1r9UN54aVFTty9AlLwPkW6ZHVFl.jpg","adult":false,"overview":"Based on the bestselling novel by Donato Carrisi, THE GIRL IN THE FOG is a gripping and chilling thriller that brings us to a hazy mountain village where enigmatic Detective Vogel is investigating on the sudden disappearance of fifteen-year-old Anna Lou. But with the case at the heart of a media storm, the fine line between the police and criminals begins to blur and soon everyone becomes a suspect.","release_date":"2017-10-26"},{"vote_count":721,"id":396371,"video":false,"vote_average":7,"title":"Molly's Game","popularity":35.301057,"poster_path":"\/h9hUP5ZJGsjL2wbERrGlj4dMjZq.jpg","original_language":"en","original_title":"Molly's Game","genre_ids":[80,18],"backdrop_path":"\/yvbXGWjg30sj7rohEZvSe90jSJC.jpg","adult":false,"overview":"Molly Bloom, a young skier and former Olympic hopeful becomes a successful entrepreneur (and a target of an FBI investigation) when she establishes a high-stakes, international poker game.","release_date":"2017-12-21"},{"vote_count":37,"id":460019,"video":false,"vote_average":5.7,"title":"Truth or Dare","popularity":34.100384,"poster_path":"\/kdkNaQYZ7dhM80LsnAGKpH8ca2g.jpg","original_language":"en","original_title":"Truth or Dare","genre_ids":[53,27],"backdrop_path":"\/eQ5xu2pQ5Kergubto5PbbUzey28.jpg","adult":false,"overview":"A harmless game of “Truth or Dare” among friends turns deadly when someone—or something—begins to punish those who tell a lie—or refuse the dare.","release_date":"2018-04-12"},{"vote_count":1211,"id":446354,"video":false,"vote_average":7,"title":"The Post","popularity":33.150409,"poster_path":"\/h4XG3g6uMMPIBPjAoQhC2QIMdkl.jpg","original_language":"en","original_title":"The Post","genre_ids":[18,36],"backdrop_path":"\/8sb4aBST28vN3rBz704XJczS0Ld.jpg","adult":false,"overview":"A cover-up that spanned four U.S. Presidents pushed the country's first female newspaper publisher and a hard-driving editor to join an unprecedented battle between journalist and government. Inspired by true events.","release_date":"2018-01-11"},{"vote_count":175,"id":449176,"video":false,"vote_average":8.4,"title":"Love, Simon","popularity":32.409544,"poster_path":"\/5YUYg5q7QfC4IoNwNUtiwdiYKPr.jpg","original_language":"en","original_title":"Love, Simon","genre_ids":[35,18,10749],"backdrop_path":"\/rqMEeajyzSF4PpJtdCB816Iz8Vr.jpg","adult":false,"overview":"Everyone deserves a great love story. But for seventeen-year old Simon Spier it’s a little more complicated: he’s yet to tell his family or friends he’s gay and he doesn’t actually know the identity of the anonymous classmate he’s fallen for online.","release_date":"2018-03-16"},{"vote_count":212,"id":398181,"video":false,"vote_average":6.5,"title":"You Were Never Really Here","popularity":32.189911,"poster_path":"\/ktPbjD6nYg5NxmeTt72Iqaw5GD0.jpg","original_language":"en","original_title":"You Were Never Really Here","genre_ids":[18,53,80],"backdrop_path":"\/g2yZ1kiGwLO5AUSmtsEJeFEWghJ.jpg","adult":false,"overview":"A traumatised veteran, unafraid of violence, tracks down missing girls for a living. When a job spins out of control, Joe's nightmares overtake him as a conspiracy is uncovered leading to what may be his death trip or his awakening.","release_date":"2017-11-08"}],"page":1,"total_results":868,"dates":{"maximum":"2018-05-06","minimum":"2018-03-21"},"total_pages":44}